{
     "android": {
         "release": {
             "keystore": "FRDB-CC.keystore",
             "storePassword": "FRDBCC",
             "alias": "FRDB-CC",
             "password" : "FRDBCC",
             "keystoreType": ""
         }
     }
 }
